Ajuste de tasas – Residencia-INE
…
poblaciones <- poblaciones |> 
  filter(YEAR == 2022)

Por último, vamos a sumar poblaciones de las observaciones que son de diferentes departamentos para esas dos provincias, respetando el sexo y la edad como estructura.

poblaciones <- poblaciones |> 
  summarise(POBLACION = sum(POBLACION),
            .by = c(JURI, SEXO, GRUPEDAD))

Observemos como nos quedó el dataframe poblaciones:

poblaciones

# A tibble: 68 × 4
   JURI   SEXO GRUPEDAD POBLACION
   <chr> <dbl> <chr>        <dbl>
 1 06        1 0-4         720286
 2 82        1 0-4         136815
 3 06        2 0-4         678714
 4 82        2 0-4         128983
 5 06        1 5-9         744713
 6 82        1 5-9         138743
 7 06        2 5-9         702793
 8 82        2 5-9         130876
 9 06        1 10-14       739162
10 82        1 10-14       134392
# ℹ 58 more rows
…
Convertimos a numérico la última parte del intervalo para restarle 1

7

Unimos nuevamente en GRUPEDAD concatenando las dos partes del intervalo definiendo en el medio el caracter “-” con str_c()

8

Finalmente, si la edad es igual o mayor a 80 años, definimos la etiqueta como “80 y más” al igual que GRUPEDAD en poblaciones.

Veamos que nos quedó:

defunciones

# A tibble: 183,814 × 3
   JURI   SEXO GRUPEDAD
   <chr> <dbl> <chr>   
 1 06        1 80 y más
 2 06        2 65-69   
 3 06        1 80 y más
 4 06        2 80 y más
 5 06        2 70-74   
 6 06        2 60-64   
 7 06        2 70-74   
 8 06        2 75-79   
 9 06        1 75-79   
10 06        2 75-79   
# ℹ 183,804 more rows
…
Tenemos dos categorías, la 3 y 9, con 1 sola muerte cada una que no vamos a poder contabilizar porque en poblaciones solo hay dos categorías de sexo (1 y 2)

defunciones <- defunciones |> 
  filter(SEXO < 3)

Bien, ahora debemos hacer el conteo de estas defunciones en función a las tres variables participantes

defunciones <- defunciones |> 
  count(JURI, SEXO, GRUPEDAD, name = "MUERTES")

La tabla agregada de defunciones para estas dos provincias nos queda:

defunciones

# A tibble: 68 × 4
   JURI   SEXO GRUPEDAD MUERTES
   <chr> <dbl> <chr>      <int>
 1 06        1 0-4         1413
 2 06        1 10-14         92
 3 06        1 15-19        435
 4 06        1 20-24        691
 5 06        1 25-29        806
 6 06        1 30-34        869
 7 06        1 35-39        907
 8 06        1 40-44       1371
 9 06        1 45-49       1894
10 06        1 5-9           94
# ℹ 58 more rows

Finalmente debemos unir las dos tablas usando como clave JURI, SEXO y GRUPEDAD (que antes logramos que se llamaran iguales, tuvieran el mismo tipo de dato y las mismas etiquetas).

datos <- defunciones |> 
  inner_join(poblaciones)

Joining with `by = join_by(JURI, SEXO, GRUPEDAD)`

Observemos que no usamos ninguna definición de clave porque al coincidir sus nombres lo hace automáticamente, agregando las variables diferentes como MUERTES y POBLACION a la tabla final.

datos

# A tibble: 68 × 5
   JURI   SEXO GRUPEDAD MUERTES POBLACION
   <chr> <dbl> <chr>      <int>     <dbl>
 1 06        1 0-4         1413    720286
 2 06        1 10-14         92    739162
 3 06        1 15-19        435    684298
 4 06        1 20-24        691    661069
 5 06        1 25-29        806    661561
 6 06        1 30-34        869    663730
 7 06        1 35-39        907    617850
 8 06        1 40-44       1371    598546
 9 06        1 45-49       1894    549622
10 06        1 5-9           94    744713
# ℹ 58 more rows
…
Unimos al dataframe datos

datos <-  datos |> 
  inner_join(pob_INDEC)

Joining with `by = join_by(SEXO, GRUPEDAD)`

Finalmente están los datos necesarios para el ajuste:

datos

# A tibble: 68 × 6
   JURI   SEXO GRUPEDAD MUERTES POBLACION POB_STD
   <chr> <dbl> <chr>      <int>     <dbl>   <dbl>
 1 06        1 0-4         1413    720286 1895619
 2 06        1 10-14         92    739162 1889663
 3 06        1 15-19        435    684298 1799316
 4 06        1 20-24        691    661069 1787521
 5 06        1 25-29        806    661561 1797079
 6 06        1 30-34        869    663730 1714809
 7 06        1 35-39        907    617850 1585535
 8 06        1 40-44       1371    598546 1541460
 9 06        1 45-49       1894    549622 1393202
10 06        1 5-9           94    744713 1927834
# ℹ 58 more rows
…
