Datos perdidos (missing) – Residencia-INE
…
Proporciona funciones analíticas y visuales de detección y gestión

Es compatible con el mundo “tidy” de tidyverse

Aborda las relaciones o estructura de la falta de datos.

Posibilita el trabajo de imputación (no tratado en este curso)

De las muchas funciones que tiene el paquete seleccionamos algunas para mostrar que son muy útiles para una tarea básica.

La función miss_var_summary() proporciona un resumen sobre los valores NA en cada variable del dataframe similar a find_na() que vimos anterioremente pero con una salida en forma de tabla y un recento absoluto, además de porcentual.

miss_var_summary(datos)

# A tibble: 56 × 3
   variable                    n_miss pct_miss
   <chr>                        <int>    <num>
 1 ETNIA                          200    100  
 2 TRATAMIENTO_ANTIRRETROVIRAL    199     99.5
 3 COVID                          199     99.5
 4 MOTIVO_CONSULTA                181     90.5
 5 FECHA_FIN_TRAT                 142     71  
 6 ESTABLECIMIENTO_DIAG            76     38  
 7 DEPARTAMENTO_DIAG               76     38  
 8 ESTABLECIMIENTO_MUESTRA         72     36  
 9 DEPARTAMENTO_MUESTRA            72     36  
10 FIS                             48     24  
# ℹ 46 more rows
…
# A tibble: 0 × 56
# ℹ 56 variables: SEXO <chr>, FECHA_NACIMIENTO <dttm>, EDAD_DIAGNOSTICO <dbl>,
#   GRUPEDAD <chr>, PROVINCIA_RESIDENCIA <chr>, ID_PROV_INDEC_RESIDENCIA <chr>,
#   DEPARTAMENTO_RESIDENCIA <chr>, ID_DEPTO_INDEC_RESIDENCIA <chr>,
#   LOCALIDAD_RESIDENCIA <chr>, ESTABLECIMIENTO_SALUD <chr>,
#   ESTABLECIMIENTO_CARGA <chr>, PROVINCIA_CARGA <chr>, DEPTO_CARGA <chr>,
#   ESTAB_CLINICA <chr>, DEPTO_CLINICA <chr>, PPL <chr>,
#   SERVICIO_PENITENCIARIO <chr>, FECHA_APERTURA <dttm>, …

datos |> 
  drop_na(FIS)

# A tibble: 152 × 56
   SEXO  FECHA_NACIMIENTO    EDAD_DIAGNOSTICO GRUPEDAD PROVINCIA_RESIDENCIA
   <chr> <dttm>                         <dbl> <chr>    <chr>               
 1 M     1948-06-22 00:00:00               74 70-74    Tierra del Fuego    
 2 F     1981-06-20 00:00:00               41 40-44    Buenos Aires        
 3 F     1989-03-30 00:00:00               33 30-34    Buenos Aires        
 4 M     2006-11-17 00:00:00               16 15-19    Chaco               
 5 M     1993-06-02 00:00:00               29 25-29    Jujuy               
 6 M     1989-04-08 00:00:00               33 30-34    Buenos Aires        
 7 F     1977-07-30 00:00:00               45 45-49    Buenos Aires        
 8 F     2008-01-10 00:00:00               15 15-19    Chaco               
 9 M     1987-11-27 00:00:00               35 35-39    Buenos Aires        
10 F     2002-12-21 00:00:00               20 20-24    Buenos Aires        
# ℹ 142 more rows
# ℹ 51 more variables: ID_PROV_INDEC_RESIDENCIA <chr>,
#   DEPARTAMENTO_RESIDENCIA <chr>, ID_DEPTO_INDEC_RESIDENCIA <chr>,
#   LOCALIDAD_RESIDENCIA <chr>, ESTABLECIMIENTO_SALUD <chr>,
#   ESTABLECIMIENTO_CARGA <chr>, PROVINCIA_CARGA <chr>, DEPTO_CARGA <chr>,
#   ESTAB_CLINICA <chr>, DEPTO_CLINICA <chr>, PPL <chr>,
#   SERVICIO_PENITENCIARIO <chr>, FECHA_APERTURA <dttm>, …
…
