Exploración, depuración y gestión de tablas de datos – Residencia-INE
…
La función tiene un argumento denominado .keep_all que permite valores TRUE o FALSE. Si se iguala a TRUE se mantienen en el resultado todas las variables que son parte de la tabla, aunque estas no estén declaradas dentro del distinct().

Por defecto, este argumento se encuentra igualado a FALSE.

nrow(datos)

[1] 200

datos |> 
  distinct(SEXO, FECHA_NACIMIENTO, ID_PROV_INDEC_RESIDENCIA, 
           ID_DEPTO_INDEC_RESIDENCIA, 
           .keep_all = T)

# A tibble: 199 × 56
   SEXO  FECHA_NACIMIENTO EDAD_DIAGNOSTICO GRUPEDAD PROVINCIA_RESIDENCIA
   <chr> <date>                      <dbl> <chr>    <chr>               
 1 M     1948-06-22                     74 70-74    Tierra del Fuego    
 2 F     1981-06-20                     41 40-44    Buenos Aires        
 3 F     1989-03-30                     33 30-34    Buenos Aires        
 4 M     2006-11-17                     16 15-19    Chaco               
 5 M     1993-06-02                     29 25-29    Jujuy               
 6 M     1989-04-08                     33 30-34    Buenos Aires        
 7 F     1977-07-30                     45 45-49    Buenos Aires        
 8 M     1968-04-09                     54 50-54    Misiones            
 9 F     2008-01-10                     15 15-19    Chaco               
10 M     1987-11-27                    105 35-39    Buenos Aires        
# ℹ 189 more rows
# ℹ 51 more variables: ID_PROV_INDEC_RESIDENCIA <chr>,
#   DEPARTAMENTO_RESIDENCIA <chr>, ID_DEPTO_INDEC_RESIDENCIA <chr>,
#   LOCALIDAD_RESIDENCIA <chr>, ESTABLECIMIENTO_SALUD <chr>,
#   ESTABLECIMIENTO_CARGA <chr>, PROVINCIA_CARGA <chr>, DEPTO_CARGA <chr>,
#   ESTAB_CLINICA <chr>, DEPTO_CLINICA <chr>, PPL <chr>,
#   SERVICIO_PENITENCIARIO <chr>, FECHA_APERTURA <date>, …
…
