Visualización de datos – Residencia-INE
…
El mapeo estético permite definir el rol que cada variable representa en el gráfico. Los roles comunes son: eje x, eje y, color de contorno y color de relleno. Existen otros especiales como de text,agrupamiento u opacidad.

La simultáneidad de variables provoca que se puedan realizar gráficos con 2, 3 o n variables.

Por supuesto que esta definición conecta con el elemento geométrico seleccionado. Por ejemplo, si el elemento geométrico es un geom_point() generamos un diagrama de dispersión de puntos y para esto necesitamos definir como mínimo una variable en el eje x y otra en el eje y que deberán ser numéricas. También podríamos definir alguna variable que mapee el color de los puntos, es decir una tercera variable participante.

Ejemplo de gráfico de dispersión

Nada mejor que ver un ejemplo para explicar el funcionamiento del sistema gráfico de ggplot2. Realicemos paso a paso un gráfico de dispersión de puntos:

Tenemos estos datos ficticios para probar el paquete.

datos

# A tibble: 51 × 3
       x     y z    
   <dbl> <dbl> <chr>
 1     2     1 A    
 2     5     2 A    
 3     7     2 A    
 4     4     2 A    
 5     1     3 A    
 6     8     4 A    
 7     1     4 A    
 8     9     5 A    
 9     2     5 A    
10     6     5 A    
# ℹ 41 more rows
…
