Lectura de datos – Residencia-INE
…
Vamos a tratar de leer el archivo “Dieta.csv”

Para esto podemos utilizar el panel File y pulsando sobre el archivo visualizar el contenido con View File

Debemos prestar atención a la cabecera del archivo y al caracter que aparece separando las columnas.

En este caso vemos que tiene cabecera y el separador es la coma (,)

Podemos utilizar read_csv() de readr, pero antes tenemos que activar tidyverse

library(tidyverse)

read_csv(file = "datos/Dieta.csv")

# A tibble: 81 × 7
      ID Sexo   Edad Altura Peso_previo Dieta Peso_6sem
   <dbl> <chr> <dbl>  <dbl>       <dbl> <dbl>     <dbl>
 1    25 Mujer    41    171          60     2      60  
 2    26 Mujer    32    174         103     2     103  
 3     1 Mujer    22    159          58     1      54.2
 4     2 Mujer    46    192          60     1      54  
 5     3 Mujer    55    170          64     1      63.3
 6     4 Mujer    33    171          64     1      61.1
 7     5 Mujer    50    170          65     1      62.2
 8     6 Mujer    50    201          66     1      64  
 9     7 Mujer    37    174          67     1      65  
10     8 Mujer    28    176          69     1      60.5
# ℹ 71 more rows
…
Que pasa si me equivoco y aplico mal la función, por ejemplo:

read_csv2(file = "datos/Dieta.csv")

ℹ Using "','" as decimal and "'.'" as grouping mark. Use `read_delim()` for more control.

Rows: 81 Columns: 1
── Column specification ────────────────────────────────────────────────────────
Delimiter: ";"
chr (1): ID,Sexo,Edad,Altura,Peso_previo,Dieta,Peso_6sem

ℹ Use `spec()` to retrieve the full column specification for this data.
ℹ Specify the column types or set `show_col_types = FALSE` to quiet this message.

# A tibble: 81 × 1
   `ID,Sexo,Edad,Altura,Peso_previo,Dieta,Peso_6sem`
   <chr>                                            
 1 25,Mujer,41,171,60,2,60                          
 2 26,Mujer,32,174,103,2,103                        
 3 1,Mujer,22,159,58,1,54.2                         
 4 2,Mujer,46,192,60,1,54                           
 5 3,Mujer,55,170,64,1,63.3                         
 6 4,Mujer,33,171,64,1,61.1                         
 7 5,Mujer,50,170,65,1,62.2                         
 8 6,Mujer,50,201,66,1,64                           
 9 7,Mujer,37,174,67,1,65                           
10 8,Mujer,28,176,69,1,60.5                         
# ℹ 71 more rows
…
que es lo mismo que hacer: datos1 <- read_excel("datos/datos.xlsx") ya que asume 1 en sheet de forma predeterminada.

Con la hoja 2 tenemos un problema:

datos2 <- read_excel(path = "datos/datos.xlsx",
                     sheet = 2)

New names:
• `` -> `...2`

datos2

# A tibble: 31 × 2
   `Listado de códigos estadisticos INDEC de provincias argentina` ...2         
   <chr>                                                           <chr>        
 1 <NA>                                                            <NA>         
 2 CODIGO                                                          CÓDIGO DE PR…
 3 VALOR                                                           DESCRIPCIÓN …
 4 <NA>                                                            <NA>         
 5 CODIGO                                                          VALOR        
 6 02                                                              Ciudad Aut. …
 7 06                                                              Buenos Aires 
 8 10                                                              Catamarca    
 9 14                                                              Córdoba      
10 18                                                              Corrientes   
# ℹ 21 more rows
…
